- testcaseId: TC_002
  storyId:  JIRA_001
  testcaseDescription: Get list of users
  priority: P0
  testcaseType:
    - REGRESSION
    - SMOKE
  expectedResult: api should return 200 response
  requestSpec:
    uri: /api/users
    method: GET
    queryParam:
      page: 2
  validation:
    responseValidation:
      statusCode: 200
      body: >
        {
                "page": 2,
                "per_page": 6,
                "total": 12,
                "total_pages": 2,
                "data": [
                  {
                    "id": 7,
                    "email": "michael.lawson@reqres.in",
                    "first_name": "Michael",
                    "last_name": "Lawson",
                    "avatar": "https://reqres.in/img/faces/7-image.jpg"
                  },
                  {
                    "id": 8,
                    "email": "lindsay.ferguson@reqres.in",
                    "first_name": "Lindsay",
                    "last_name": "Ferguson",
                    "avatar": "https://reqres.in/img/faces/8-image.jpg"
                  },
                  {
                    "id": 9,
                    "email": "tobias.funke@reqres.in",
                    "first_name": "Tobias",
                    "last_name": "Funke",
                    "avatar": "https://reqres.in/img/faces/9-image.jpg"
                  },
                  {
                    "id": 10,
                    "email": "byron.fields@reqres.in",
                    "first_name": "Byron",
                    "last_name": "Fields",
                    "avatar": "https://reqres.in/img/faces/10-image.jpg"
                  },
                  {
                    "id": 11,
                    "email": "george.edwards@reqres.in",
                    "first_name": "George",
                    "last_name": "Edwards",
                    "avatar": "https://reqres.in/img/faces/11-image.jpg"
                  },
                  {
                    "id": 12,
                    "email": "rachel.howell@reqres.in",
                    "first_name": "Rachel",
                    "last_name": "Howell",
                    "avatar": "https://reqres.in/img/faces/12-image.jpg"
                  }
                ],
                "support": {
                  "url": "https://contentcaddy.io?utm_source=reqres&utm_medium=json&utm_campaign=referral",
                  "text": "Tired of writing endless social media content? Let Content Caddy generate it for you."
                }
              }
                {
                  "page": 2,
                  "per_page": 6,
                  "total": 12,
                  "total_pages": 2,
                  "data": [
                    {
                      "id": 7,
                      "email": "michael.lawson@reqres.in",
                      "first_name": "Michael",
                      "last_name": "Lawson",
                      "avatar": "https://reqres.in/img/faces/7-image.jpg"
                    },
                    {
                      "id": 8,
                      "email": "lindsay.ferguson@reqres.in",
                      "first_name": "Lindsay",
                      "last_name": "Ferguson",
                      "avatar": "https://reqres.in/img/faces/8-image.jpg"
                    },
                    {
                      "id": 9,
                      "email": "tobias.funke@reqres.in",
                      "first_name": "Tobias",
                      "last_name": "Funke",
                      "avatar": "https://reqres.in/img/faces/9-image.jpg"
                    },
                    {
                      "id": 10,
                      "email": "byron.fields@reqres.in",
                      "first_name": "Byron",
                      "last_name": "Fields",
                      "avatar": "https://reqres.in/img/faces/10-image.jpg"
                    },
                    {
                      "id": 11,
                      "email": "george.edwards@reqres.in",
                      "first_name": "George",
                      "last_name": "Edwards",
                      "avatar": "https://reqres.in/img/faces/11-image.jpg"
                    },
                    {
                      "id": 12,
                      "email": "rachel.howell@reqres.in",
                      "first_name": "Rachel",
                      "last_name": "Howell",
                      "avatar": "https://reqres.in/img/faces/12-image.jpg"
                    }
                  ],
                  "support": {
                    "url": "https://contentcaddy.io?utm_source=reqres&utm_medium=json&utm_campaign=referral",
                    "text": "Tired of writing endless social media content? Let Content Caddy generate it for you."
                  }
                }
    schemaValidation: {
      "$schema": "http://json-schema.org/draft-04/schema#",
      "type": "object",
      "properties": {
        "page": {
          "type": "integer"
        },
        "per_page": {
          "type": "integer"
        },
        "total": {
          "type": "integer"
        },
        "total_pages": {
          "type": "integer"
        },
        "data": {
          "type": "array",
          "items": [
            {
              "type": "object",
              "properties": {
                "id": {
                  "type": "integer"
                },
                "email": {
                  "type": "string"
                },
                "first_name": {
                  "type": "string"
                },
                "last_name": {
                  "type": "string"
                },
                "avatar": {
                  "type": "string"
                }
              },
              "required": [
                "id",
                "email",
                "first_name",
                "last_name",
                "avatar"
              ]
            },
            {
              "type": "object",
              "properties": {
                "id": {
                  "type": "integer"
                },
                "email": {
                  "type": "string"
                },
                "first_name": {
                  "type": "string"
                },
                "last_name": {
                  "type": "string"
                },
                "avatar": {
                  "type": "string"
                }
              },
              "required": [
                "id",
                "email",
                "first_name",
                "last_name",
                "avatar"
              ]
            },
            {
              "type": "object",
              "properties": {
                "id": {
                  "type": "integer"
                },
                "email": {
                  "type": "string"
                },
                "first_name": {
                  "type": "string"
                },
                "last_name": {
                  "type": "string"
                },
                "avatar": {
                  "type": "string"
                }
              },
              "required": [
                "id",
                "email",
                "first_name",
                "last_name",
                "avatar"
              ]
            },
            {
              "type": "object",
              "properties": {
                "id": {
                  "type": "integer"
                },
                "email": {
                  "type": "string"
                },
                "first_name": {
                  "type": "string"
                },
                "last_name": {
                  "type": "string"
                },
                "avatar": {
                  "type": "string"
                }
              },
              "required": [
                "id",
                "email",
                "first_name",
                "last_name",
                "avatar"
              ]
            },
            {
              "type": "object",
              "properties": {
                "id": {
                  "type": "integer"
                },
                "email": {
                  "type": "string"
                },
                "first_name": {
                  "type": "string"
                },
                "last_name": {
                  "type": "string"
                },
                "avatar": {
                  "type": "string"
                }
              },
              "required": [
                "id",
                "email",
                "first_name",
                "last_name",
                "avatar"
              ]
            },
            {
              "type": "object",
              "properties": {
                "id": {
                  "type": "integer"
                },
                "email": {
                  "type": "string"
                },
                "first_name": {
                  "type": "string"
                },
                "last_name": {
                  "type": "string"
                },
                "avatar": {
                  "type": "string"
                }
              },
              "required": [
                "id",
                "email",
                "first_name",
                "last_name",
                "avatar"
              ]
            }
          ]
        },
        "support": {
          "type": "object",
          "properties": {
            "url": {
              "type": "string"
            },
            "text": {
              "type": "string"
            }
          },
          "required": [
            "url",
            "text"
          ]
        }
      },
      "required": [
        "page",
        "per_page",
        "total",
        "total_pages",
        "data",
        "support"
      ]
    }

